^D:\WORK_FOLD\CUBISM3SDKFORNATIVE-BETA10\FRAMEWORK\SRC\EFFECT\CUBISMBREATH.CPP
/c /I"D:\WORK_FOLD\CUBISM3SDKFORNATIVE-BETA10\FRAMEWORK\SRC" /I"D:\WORK_FOLD\CUBISM3SDKFORNATIVE-BETA10\FRAMEWORK\..\CORE\INCLUDE" /I"D:\WORK_FOLD\CUBISM3SDKFORNATIVE-BETA10\FRAMEWORK\..\..\THIRDPARTY\DIRECTXTK\INC" /Zi /nologo /W3 /WX- /Od /Ob0 /Oy- /D WIN32 /D _WINDOWS /D "CMAKE_INTDIR=\"Debug\"" /D _MBCS /Gm- /EHsc /RTC1 /MDd /GS /fp:precise /Zc:wchar_t /Zc:forScope /Zc:inline /GR /Fo"FRAMEWORK.DIR\DEBUG\\" /Fd"FRAMEWORK.DIR\DEBUG\FRAMEWORK.PDB" /Gd /TP /analyze- D:\WORK_FOLD\CUBISM3SDKFORNATIVE-BETA10\FRAMEWORK\SRC\EFFECT\CUBISMBREATH.CPP
^D:\WORK_FOLD\CUBISM3SDKFORNATIVE-BETA10\FRAMEWORK\SRC\EFFECT\CUBISMEYEBLINK.CPP
/c /I"D:\WORK_FOLD\CUBISM3SDKFORNATIVE-BETA10\FRAMEWORK\SRC" /I"D:\WORK_FOLD\CUBISM3SDKFORNATIVE-BETA10\FRAMEWORK\..\CORE\INCLUDE" /I"D:\WORK_FOLD\CUBISM3SDKFORNATIVE-BETA10\FRAMEWORK\..\..\THIRDPARTY\DIRECTXTK\INC" /Zi /nologo /W3 /WX- /Od /Ob0 /Oy- /D WIN32 /D _WINDOWS /D "CMAKE_INTDIR=\"Debug\"" /D _MBCS /Gm- /EHsc /RTC1 /MDd /GS /fp:precise /Zc:wchar_t /Zc:forScope /Zc:inline /GR /Fo"FRAMEWORK.DIR\DEBUG\\" /Fd"FRAMEWORK.DIR\DEBUG\FRAMEWORK.PDB" /Gd /TP /analyze- D:\WORK_FOLD\CUBISM3SDKFORNATIVE-BETA10\FRAMEWORK\SRC\EFFECT\CUBISMEYEBLINK.CPP
^D:\WORK_FOLD\CUBISM3SDKFORNATIVE-BETA10\FRAMEWORK\SRC\EFFECT\CUBISMPOSE.CPP
/c /I"D:\WORK_FOLD\CUBISM3SDKFORNATIVE-BETA10\FRAMEWORK\SRC" /I"D:\WORK_FOLD\CUBISM3SDKFORNATIVE-BETA10\FRAMEWORK\..\CORE\INCLUDE" /I"D:\WORK_FOLD\CUBISM3SDKFORNATIVE-BETA10\FRAMEWORK\..\..\THIRDPARTY\DIRECTXTK\INC" /Zi /nologo /W3 /WX- /Od /Ob0 /Oy- /D WIN32 /D _WINDOWS /D "CMAKE_INTDIR=\"Debug\"" /D _MBCS /Gm- /EHsc /RTC1 /MDd /GS /fp:precise /Zc:wchar_t /Zc:forScope /Zc:inline /GR /Fo"FRAMEWORK.DIR\DEBUG\\" /Fd"FRAMEWORK.DIR\DEBUG\FRAMEWORK.PDB" /Gd /TP /analyze- D:\WORK_FOLD\CUBISM3SDKFORNATIVE-BETA10\FRAMEWORK\SRC\EFFECT\CUBISMPOSE.CPP
^D:\WORK_FOLD\CUBISM3SDKFORNATIVE-BETA10\FRAMEWORK\SRC\ID\CUBISMID.CPP
/c /I"D:\WORK_FOLD\CUBISM3SDKFORNATIVE-BETA10\FRAMEWORK\SRC" /I"D:\WORK_FOLD\CUBISM3SDKFORNATIVE-BETA10\FRAMEWORK\..\CORE\INCLUDE" /I"D:\WORK_FOLD\CUBISM3SDKFORNATIVE-BETA10\FRAMEWORK\..\..\THIRDPARTY\DIRECTXTK\INC" /Zi /nologo /W3 /WX- /Od /Ob0 /Oy- /D WIN32 /D _WINDOWS /D "CMAKE_INTDIR=\"Debug\"" /D _MBCS /Gm- /EHsc /RTC1 /MDd /GS /fp:precise /Zc:wchar_t /Zc:forScope /Zc:inline /GR /Fo"FRAMEWORK.DIR\DEBUG\\" /Fd"FRAMEWORK.DIR\DEBUG\FRAMEWORK.PDB" /Gd /TP /analyze- D:\WORK_FOLD\CUBISM3SDKFORNATIVE-BETA10\FRAMEWORK\SRC\ID\CUBISMID.CPP
^D:\WORK_FOLD\CUBISM3SDKFORNATIVE-BETA10\FRAMEWORK\SRC\ID\CUBISMIDMANAGER.CPP
/c /I"D:\WORK_FOLD\CUBISM3SDKFORNATIVE-BETA10\FRAMEWORK\SRC" /I"D:\WORK_FOLD\CUBISM3SDKFORNATIVE-BETA10\FRAMEWORK\..\CORE\INCLUDE" /I"D:\WORK_FOLD\CUBISM3SDKFORNATIVE-BETA10\FRAMEWORK\..\..\THIRDPARTY\DIRECTXTK\INC" /Zi /nologo /W3 /WX- /Od /Ob0 /Oy- /D WIN32 /D _WINDOWS /D "CMAKE_INTDIR=\"Debug\"" /D _MBCS /Gm- /EHsc /RTC1 /MDd /GS /fp:precise /Zc:wchar_t /Zc:forScope /Zc:inline /GR /Fo"FRAMEWORK.DIR\DEBUG\\" /Fd"FRAMEWORK.DIR\DEBUG\FRAMEWORK.PDB" /Gd /TP /analyze- D:\WORK_FOLD\CUBISM3SDKFORNATIVE-BETA10\FRAMEWORK\SRC\ID\CUBISMIDMANAGER.CPP
^D:\WORK_FOLD\CUBISM3SDKFORNATIVE-BETA10\FRAMEWORK\SRC\MATH\CUBISMMATH.CPP
/c /I"D:\WORK_FOLD\CUBISM3SDKFORNATIVE-BETA10\FRAMEWORK\SRC" /I"D:\WORK_FOLD\CUBISM3SDKFORNATIVE-BETA10\FRAMEWORK\..\CORE\INCLUDE" /I"D:\WORK_FOLD\CUBISM3SDKFORNATIVE-BETA10\FRAMEWORK\..\..\THIRDPARTY\DIRECTXTK\INC" /Zi /nologo /W3 /WX- /Od /Ob0 /Oy- /D WIN32 /D _WINDOWS /D "CMAKE_INTDIR=\"Debug\"" /D _MBCS /Gm- /EHsc /RTC1 /MDd /GS /fp:precise /Zc:wchar_t /Zc:forScope /Zc:inline /GR /Fo"FRAMEWORK.DIR\DEBUG\\" /Fd"FRAMEWORK.DIR\DEBUG\FRAMEWORK.PDB" /Gd /TP /analyze- D:\WORK_FOLD\CUBISM3SDKFORNATIVE-BETA10\FRAMEWORK\SRC\MATH\CUBISMMATH.CPP
^D:\WORK_FOLD\CUBISM3SDKFORNATIVE-BETA10\FRAMEWORK\SRC\MATH\CUBISMMATRIX44.CPP
/c /I"D:\WORK_FOLD\CUBISM3SDKFORNATIVE-BETA10\FRAMEWORK\SRC" /I"D:\WORK_FOLD\CUBISM3SDKFORNATIVE-BETA10\FRAMEWORK\..\CORE\INCLUDE" /I"D:\WORK_FOLD\CUBISM3SDKFORNATIVE-BETA10\FRAMEWORK\..\..\THIRDPARTY\DIRECTXTK\INC" /Zi /nologo /W3 /WX- /Od /Ob0 /Oy- /D WIN32 /D _WINDOWS /D "CMAKE_INTDIR=\"Debug\"" /D _MBCS /Gm- /EHsc /RTC1 /MDd /GS /fp:precise /Zc:wchar_t /Zc:forScope /Zc:inline /GR /Fo"FRAMEWORK.DIR\DEBUG\\" /Fd"FRAMEWORK.DIR\DEBUG\FRAMEWORK.PDB" /Gd /TP /analyze- D:\WORK_FOLD\CUBISM3SDKFORNATIVE-BETA10\FRAMEWORK\SRC\MATH\CUBISMMATRIX44.CPP
^D:\WORK_FOLD\CUBISM3SDKFORNATIVE-BETA10\FRAMEWORK\SRC\MATH\CUBISMMODELMATRIX.CPP
/c /I"D:\WORK_FOLD\CUBISM3SDKFORNATIVE-BETA10\FRAMEWORK\SRC" /I"D:\WORK_FOLD\CUBISM3SDKFORNATIVE-BETA10\FRAMEWORK\..\CORE\INCLUDE" /I"D:\WORK_FOLD\CUBISM3SDKFORNATIVE-BETA10\FRAMEWORK\..\..\THIRDPARTY\DIRECTXTK\INC" /Zi /nologo /W3 /WX- /Od /Ob0 /Oy- /D WIN32 /D _WINDOWS /D "CMAKE_INTDIR=\"Debug\"" /D _MBCS /Gm- /EHsc /RTC1 /MDd /GS /fp:precise /Zc:wchar_t /Zc:forScope /Zc:inline /GR /Fo"FRAMEWORK.DIR\DEBUG\\" /Fd"FRAMEWORK.DIR\DEBUG\FRAMEWORK.PDB" /Gd /TP /analyze- D:\WORK_FOLD\CUBISM3SDKFORNATIVE-BETA10\FRAMEWORK\SRC\MATH\CUBISMMODELMATRIX.CPP
^D:\WORK_FOLD\CUBISM3SDKFORNATIVE-BETA10\FRAMEWORK\SRC\MATH\CUBISMTARGETPOINT.CPP
/c /I"D:\WORK_FOLD\CUBISM3SDKFORNATIVE-BETA10\FRAMEWORK\SRC" /I"D:\WORK_FOLD\CUBISM3SDKFORNATIVE-BETA10\FRAMEWORK\..\CORE\INCLUDE" /I"D:\WORK_FOLD\CUBISM3SDKFORNATIVE-BETA10\FRAMEWORK\..\..\THIRDPARTY\DIRECTXTK\INC" /Zi /nologo /W3 /WX- /Od /Ob0 /Oy- /D WIN32 /D _WINDOWS /D "CMAKE_INTDIR=\"Debug\"" /D _MBCS /Gm- /EHsc /RTC1 /MDd /GS /fp:precise /Zc:wchar_t /Zc:forScope /Zc:inline /GR /Fo"FRAMEWORK.DIR\DEBUG\\" /Fd"FRAMEWORK.DIR\DEBUG\FRAMEWORK.PDB" /Gd /TP /analyze- D:\WORK_FOLD\CUBISM3SDKFORNATIVE-BETA10\FRAMEWORK\SRC\MATH\CUBISMTARGETPOINT.CPP
^D:\WORK_FOLD\CUBISM3SDKFORNATIVE-BETA10\FRAMEWORK\SRC\MATH\CUBISMVECTOR2.CPP
/c /I"D:\WORK_FOLD\CUBISM3SDKFORNATIVE-BETA10\FRAMEWORK\SRC" /I"D:\WORK_FOLD\CUBISM3SDKFORNATIVE-BETA10\FRAMEWORK\..\CORE\INCLUDE" /I"D:\WORK_FOLD\CUBISM3SDKFORNATIVE-BETA10\FRAMEWORK\..\..\THIRDPARTY\DIRECTXTK\INC" /Zi /nologo /W3 /WX- /Od /Ob0 /Oy- /D WIN32 /D _WINDOWS /D "CMAKE_INTDIR=\"Debug\"" /D _MBCS /Gm- /EHsc /RTC1 /MDd /GS /fp:precise /Zc:wchar_t /Zc:forScope /Zc:inline /GR /Fo"FRAMEWORK.DIR\DEBUG\\" /Fd"FRAMEWORK.DIR\DEBUG\FRAMEWORK.PDB" /Gd /TP /analyze- D:\WORK_FOLD\CUBISM3SDKFORNATIVE-BETA10\FRAMEWORK\SRC\MATH\CUBISMVECTOR2.CPP
^D:\WORK_FOLD\CUBISM3SDKFORNATIVE-BETA10\FRAMEWORK\SRC\MATH\CUBISMVIEWMATRIX.CPP
/c /I"D:\WORK_FOLD\CUBISM3SDKFORNATIVE-BETA10\FRAMEWORK\SRC" /I"D:\WORK_FOLD\CUBISM3SDKFORNATIVE-BETA10\FRAMEWORK\..\CORE\INCLUDE" /I"D:\WORK_FOLD\CUBISM3SDKFORNATIVE-BETA10\FRAMEWORK\..\..\THIRDPARTY\DIRECTXTK\INC" /Zi /nologo /W3 /WX- /Od /Ob0 /Oy- /D WIN32 /D _WINDOWS /D "CMAKE_INTDIR=\"Debug\"" /D _MBCS /Gm- /EHsc /RTC1 /MDd /GS /fp:precise /Zc:wchar_t /Zc:forScope /Zc:inline /GR /Fo"FRAMEWORK.DIR\DEBUG\\" /Fd"FRAMEWORK.DIR\DEBUG\FRAMEWORK.PDB" /Gd /TP /analyze- D:\WORK_FOLD\CUBISM3SDKFORNATIVE-BETA10\FRAMEWORK\SRC\MATH\CUBISMVIEWMATRIX.CPP
^D:\WORK_FOLD\CUBISM3SDKFORNATIVE-BETA10\FRAMEWORK\SRC\MODEL\CUBISMMODELUSERDATA.CPP
/c /I"D:\WORK_FOLD\CUBISM3SDKFORNATIVE-BETA10\FRAMEWORK\SRC" /I"D:\WORK_FOLD\CUBISM3SDKFORNATIVE-BETA10\FRAMEWORK\..\CORE\INCLUDE" /I"D:\WORK_FOLD\CUBISM3SDKFORNATIVE-BETA10\FRAMEWORK\..\..\THIRDPARTY\DIRECTXTK\INC" /Zi /nologo /W3 /WX- /Od /Ob0 /Oy- /D WIN32 /D _WINDOWS /D "CMAKE_INTDIR=\"Debug\"" /D _MBCS /Gm- /EHsc /RTC1 /MDd /GS /fp:precise /Zc:wchar_t /Zc:forScope /Zc:inline /GR /Fo"FRAMEWORK.DIR\DEBUG\\" /Fd"FRAMEWORK.DIR\DEBUG\FRAMEWORK.PDB" /Gd /TP /analyze- D:\WORK_FOLD\CUBISM3SDKFORNATIVE-BETA10\FRAMEWORK\SRC\MODEL\CUBISMMODELUSERDATA.CPP
^D:\WORK_FOLD\CUBISM3SDKFORNATIVE-BETA10\FRAMEWORK\SRC\MODEL\CUBISMMODELUSERDATAJSON.CPP
/c /I"D:\WORK_FOLD\CUBISM3SDKFORNATIVE-BETA10\FRAMEWORK\SRC" /I"D:\WORK_FOLD\CUBISM3SDKFORNATIVE-BETA10\FRAMEWORK\..\CORE\INCLUDE" /I"D:\WORK_FOLD\CUBISM3SDKFORNATIVE-BETA10\FRAMEWORK\..\..\THIRDPARTY\DIRECTXTK\INC" /Zi /nologo /W3 /WX- /Od /Ob0 /Oy- /D WIN32 /D _WINDOWS /D "CMAKE_INTDIR=\"Debug\"" /D _MBCS /Gm- /EHsc /RTC1 /MDd /GS /fp:precise /Zc:wchar_t /Zc:forScope /Zc:inline /GR /Fo"FRAMEWORK.DIR\DEBUG\\" /Fd"FRAMEWORK.DIR\DEBUG\FRAMEWORK.PDB" /Gd /TP /analyze- D:\WORK_FOLD\CUBISM3SDKFORNATIVE-BETA10\FRAMEWORK\SRC\MODEL\CUBISMMODELUSERDATAJSON.CPP
^D:\WORK_FOLD\CUBISM3SDKFORNATIVE-BETA10\FRAMEWORK\SRC\MODEL\CUBISMUSERMODEL.CPP
/c /I"D:\WORK_FOLD\CUBISM3SDKFORNATIVE-BETA10\FRAMEWORK\SRC" /I"D:\WORK_FOLD\CUBISM3SDKFORNATIVE-BETA10\FRAMEWORK\..\CORE\INCLUDE" /I"D:\WORK_FOLD\CUBISM3SDKFORNATIVE-BETA10\FRAMEWORK\..\..\THIRDPARTY\DIRECTXTK\INC" /Zi /nologo /W3 /WX- /Od /Ob0 /Oy- /D WIN32 /D _WINDOWS /D "CMAKE_INTDIR=\"Debug\"" /D _MBCS /Gm- /EHsc /RTC1 /MDd /GS /fp:precise /Zc:wchar_t /Zc:forScope /Zc:inline /GR /Fo"FRAMEWORK.DIR\DEBUG\\" /Fd"FRAMEWORK.DIR\DEBUG\FRAMEWORK.PDB" /Gd /TP /analyze- D:\WORK_FOLD\CUBISM3SDKFORNATIVE-BETA10\FRAMEWORK\SRC\MODEL\CUBISMUSERMODEL.CPP
^D:\WORK_FOLD\CUBISM3SDKFORNATIVE-BETA10\FRAMEWORK\SRC\MODEL\CUBISMMOC.CPP
/c /I"D:\WORK_FOLD\CUBISM3SDKFORNATIVE-BETA10\FRAMEWORK\SRC" /I"D:\WORK_FOLD\CUBISM3SDKFORNATIVE-BETA10\FRAMEWORK\..\CORE\INCLUDE" /I"D:\WORK_FOLD\CUBISM3SDKFORNATIVE-BETA10\FRAMEWORK\..\..\THIRDPARTY\DIRECTXTK\INC" /Zi /nologo /W3 /WX- /Od /Ob0 /Oy- /D WIN32 /D _WINDOWS /D "CMAKE_INTDIR=\"Debug\"" /D _MBCS /Gm- /EHsc /RTC1 /MDd /GS /fp:precise /Zc:wchar_t /Zc:forScope /Zc:inline /GR /Fo"FRAMEWORK.DIR\DEBUG\\" /Fd"FRAMEWORK.DIR\DEBUG\FRAMEWORK.PDB" /Gd /TP /analyze- D:\WORK_FOLD\CUBISM3SDKFORNATIVE-BETA10\FRAMEWORK\SRC\MODEL\CUBISMMOC.CPP
^D:\WORK_FOLD\CUBISM3SDKFORNATIVE-BETA10\FRAMEWORK\SRC\MOTION\CUBISMEXPRESSIONMOTION.CPP
/c /I"D:\WORK_FOLD\CUBISM3SDKFORNATIVE-BETA10\FRAMEWORK\SRC" /I"D:\WORK_FOLD\CUBISM3SDKFORNATIVE-BETA10\FRAMEWORK\..\CORE\INCLUDE" /I"D:\WORK_FOLD\CUBISM3SDKFORNATIVE-BETA10\FRAMEWORK\..\..\THIRDPARTY\DIRECTXTK\INC" /Zi /nologo /W3 /WX- /Od /Ob0 /Oy- /D WIN32 /D _WINDOWS /D "CMAKE_INTDIR=\"Debug\"" /D _MBCS /Gm- /EHsc /RTC1 /MDd /GS /fp:precise /Zc:wchar_t /Zc:forScope /Zc:inline /GR /Fo"FRAMEWORK.DIR\DEBUG\\" /Fd"FRAMEWORK.DIR\DEBUG\FRAMEWORK.PDB" /Gd /TP /analyze- D:\WORK_FOLD\CUBISM3SDKFORNATIVE-BETA10\FRAMEWORK\SRC\MOTION\CUBISMEXPRESSIONMOTION.CPP
^D:\WORK_FOLD\CUBISM3SDKFORNATIVE-BETA10\FRAMEWORK\SRC\MOTION\CUBISMMOTION.CPP
/c /I"D:\WORK_FOLD\CUBISM3SDKFORNATIVE-BETA10\FRAMEWORK\SRC" /I"D:\WORK_FOLD\CUBISM3SDKFORNATIVE-BETA10\FRAMEWORK\..\CORE\INCLUDE" /I"D:\WORK_FOLD\CUBISM3SDKFORNATIVE-BETA10\FRAMEWORK\..\..\THIRDPARTY\DIRECTXTK\INC" /Zi /nologo /W3 /WX- /Od /Ob0 /Oy- /D WIN32 /D _WINDOWS /D "CMAKE_INTDIR=\"Debug\"" /D _MBCS /Gm- /EHsc /RTC1 /MDd /GS /fp:precise /Zc:wchar_t /Zc:forScope /Zc:inline /GR /Fo"FRAMEWORK.DIR\DEBUG\\" /Fd"FRAMEWORK.DIR\DEBUG\FRAMEWORK.PDB" /Gd /TP /analyze- D:\WORK_FOLD\CUBISM3SDKFORNATIVE-BETA10\FRAMEWORK\SRC\MOTION\CUBISMMOTION.CPP
^D:\WORK_FOLD\CUBISM3SDKFORNATIVE-BETA10\FRAMEWORK\SRC\MOTION\CUBISMMOTIONJSON.CPP
/c /I"D:\WORK_FOLD\CUBISM3SDKFORNATIVE-BETA10\FRAMEWORK\SRC" /I"D:\WORK_FOLD\CUBISM3SDKFORNATIVE-BETA10\FRAMEWORK\..\CORE\INCLUDE" /I"D:\WORK_FOLD\CUBISM3SDKFORNATIVE-BETA10\FRAMEWORK\..\..\THIRDPARTY\DIRECTXTK\INC" /Zi /nologo /W3 /WX- /Od /Ob0 /Oy- /D WIN32 /D _WINDOWS /D "CMAKE_INTDIR=\"Debug\"" /D _MBCS /Gm- /EHsc /RTC1 /MDd /GS /fp:precise /Zc:wchar_t /Zc:forScope /Zc:inline /GR /Fo"FRAMEWORK.DIR\DEBUG\\" /Fd"FRAMEWORK.DIR\DEBUG\FRAMEWORK.PDB" /Gd /TP /analyze- D:\WORK_FOLD\CUBISM3SDKFORNATIVE-BETA10\FRAMEWORK\SRC\MOTION\CUBISMMOTIONJSON.CPP
^D:\WORK_FOLD\CUBISM3SDKFORNATIVE-BETA10\FRAMEWORK\SRC\MOTION\CUBISMMOTIONMANAGER.CPP
/c /I"D:\WORK_FOLD\CUBISM3SDKFORNATIVE-BETA10\FRAMEWORK\SRC" /I"D:\WORK_FOLD\CUBISM3SDKFORNATIVE-BETA10\FRAMEWORK\..\CORE\INCLUDE" /I"D:\WORK_FOLD\CUBISM3SDKFORNATIVE-BETA10\FRAMEWORK\..\..\THIRDPARTY\DIRECTXTK\INC" /Zi /nologo /W3 /WX- /Od /Ob0 /Oy- /D WIN32 /D _WINDOWS /D "CMAKE_INTDIR=\"Debug\"" /D _MBCS /Gm- /EHsc /RTC1 /MDd /GS /fp:precise /Zc:wchar_t /Zc:forScope /Zc:inline /GR /Fo"FRAMEWORK.DIR\DEBUG\\" /Fd"FRAMEWORK.DIR\DEBUG\FRAMEWORK.PDB" /Gd /TP /analyze- D:\WORK_FOLD\CUBISM3SDKFORNATIVE-BETA10\FRAMEWORK\SRC\MOTION\CUBISMMOTIONMANAGER.CPP
^D:\WORK_FOLD\CUBISM3SDKFORNATIVE-BETA10\FRAMEWORK\SRC\MOTION\CUBISMMOTIONQUEUEENTRY.CPP
/c /I"D:\WORK_FOLD\CUBISM3SDKFORNATIVE-BETA10\FRAMEWORK\SRC" /I"D:\WORK_FOLD\CUBISM3SDKFORNATIVE-BETA10\FRAMEWORK\..\CORE\INCLUDE" /I"D:\WORK_FOLD\CUBISM3SDKFORNATIVE-BETA10\FRAMEWORK\..\..\THIRDPARTY\DIRECTXTK\INC" /Zi /nologo /W3 /WX- /Od /Ob0 /Oy- /D WIN32 /D _WINDOWS /D "CMAKE_INTDIR=\"Debug\"" /D _MBCS /Gm- /EHsc /RTC1 /MDd /GS /fp:precise /Zc:wchar_t /Zc:forScope /Zc:inline /GR /Fo"FRAMEWORK.DIR\DEBUG\\" /Fd"FRAMEWORK.DIR\DEBUG\FRAMEWORK.PDB" /Gd /TP /analyze- D:\WORK_FOLD\CUBISM3SDKFORNATIVE-BETA10\FRAMEWORK\SRC\MOTION\CUBISMMOTIONQUEUEENTRY.CPP
^D:\WORK_FOLD\CUBISM3SDKFORNATIVE-BETA10\FRAMEWORK\SRC\MOTION\CUBISMMOTIONQUEUEMANAGER.CPP
/c /I"D:\WORK_FOLD\CUBISM3SDKFORNATIVE-BETA10\FRAMEWORK\SRC" /I"D:\WORK_FOLD\CUBISM3SDKFORNATIVE-BETA10\FRAMEWORK\..\CORE\INCLUDE" /I"D:\WORK_FOLD\CUBISM3SDKFORNATIVE-BETA10\FRAMEWORK\..\..\THIRDPARTY\DIRECTXTK\INC" /Zi /nologo /W3 /WX- /Od /Ob0 /Oy- /D WIN32 /D _WINDOWS /D "CMAKE_INTDIR=\"Debug\"" /D _MBCS /Gm- /EHsc /RTC1 /MDd /GS /fp:precise /Zc:wchar_t /Zc:forScope /Zc:inline /GR /Fo"FRAMEWORK.DIR\DEBUG\\" /Fd"FRAMEWORK.DIR\DEBUG\FRAMEWORK.PDB" /Gd /TP /analyze- D:\WORK_FOLD\CUBISM3SDKFORNATIVE-BETA10\FRAMEWORK\SRC\MOTION\CUBISMMOTIONQUEUEMANAGER.CPP
^D:\WORK_FOLD\CUBISM3SDKFORNATIVE-BETA10\FRAMEWORK\SRC\PHYSICS\CUBISMPHYSICSJSON.CPP
/c /I"D:\WORK_FOLD\CUBISM3SDKFORNATIVE-BETA10\FRAMEWORK\SRC" /I"D:\WORK_FOLD\CUBISM3SDKFORNATIVE-BETA10\FRAMEWORK\..\CORE\INCLUDE" /I"D:\WORK_FOLD\CUBISM3SDKFORNATIVE-BETA10\FRAMEWORK\..\..\THIRDPARTY\DIRECTXTK\INC" /Zi /nologo /W3 /WX- /Od /Ob0 /Oy- /D WIN32 /D _WINDOWS /D "CMAKE_INTDIR=\"Debug\"" /D _MBCS /Gm- /EHsc /RTC1 /MDd /GS /fp:precise /Zc:wchar_t /Zc:forScope /Zc:inline /GR /Fo"FRAMEWORK.DIR\DEBUG\\" /Fd"FRAMEWORK.DIR\DEBUG\FRAMEWORK.PDB" /Gd /TP /analyze- D:\WORK_FOLD\CUBISM3SDKFORNATIVE-BETA10\FRAMEWORK\SRC\PHYSICS\CUBISMPHYSICSJSON.CPP
^D:\WORK_FOLD\CUBISM3SDKFORNATIVE-BETA10\FRAMEWORK\SRC\PHYSICS\CUBISMPHYSICS.CPP
/c /I"D:\WORK_FOLD\CUBISM3SDKFORNATIVE-BETA10\FRAMEWORK\SRC" /I"D:\WORK_FOLD\CUBISM3SDKFORNATIVE-BETA10\FRAMEWORK\..\CORE\INCLUDE" /I"D:\WORK_FOLD\CUBISM3SDKFORNATIVE-BETA10\FRAMEWORK\..\..\THIRDPARTY\DIRECTXTK\INC" /Zi /nologo /W3 /WX- /Od /Ob0 /Oy- /D WIN32 /D _WINDOWS /D "CMAKE_INTDIR=\"Debug\"" /D _MBCS /Gm- /EHsc /RTC1 /MDd /GS /fp:precise /Zc:wchar_t /Zc:forScope /Zc:inline /GR /Fo"FRAMEWORK.DIR\DEBUG\\" /Fd"FRAMEWORK.DIR\DEBUG\FRAMEWORK.PDB" /Gd /TP /analyze- D:\WORK_FOLD\CUBISM3SDKFORNATIVE-BETA10\FRAMEWORK\SRC\PHYSICS\CUBISMPHYSICS.CPP
^D:\WORK_FOLD\CUBISM3SDKFORNATIVE-BETA10\FRAMEWORK\SRC\RENDERING\CUBISMRENDERER.CPP
/c /I"D:\WORK_FOLD\CUBISM3SDKFORNATIVE-BETA10\FRAMEWORK\SRC" /I"D:\WORK_FOLD\CUBISM3SDKFORNATIVE-BETA10\FRAMEWORK\..\CORE\INCLUDE" /I"D:\WORK_FOLD\CUBISM3SDKFORNATIVE-BETA10\FRAMEWORK\..\..\THIRDPARTY\DIRECTXTK\INC" /Zi /nologo /W3 /WX- /Od /Ob0 /Oy- /D WIN32 /D _WINDOWS /D "CMAKE_INTDIR=\"Debug\"" /D _MBCS /Gm- /EHsc /RTC1 /MDd /GS /fp:precise /Zc:wchar_t /Zc:forScope /Zc:inline /GR /Fo"FRAMEWORK.DIR\DEBUG\\" /Fd"FRAMEWORK.DIR\DEBUG\FRAMEWORK.PDB" /Gd /TP /analyze- D:\WORK_FOLD\CUBISM3SDKFORNATIVE-BETA10\FRAMEWORK\SRC\RENDERING\CUBISMRENDERER.CPP
^D:\WORK_FOLD\CUBISM3SDKFORNATIVE-BETA10\FRAMEWORK\SRC\TYPE\CSMRECTF.CPP
/c /I"D:\WORK_FOLD\CUBISM3SDKFORNATIVE-BETA10\FRAMEWORK\SRC" /I"D:\WORK_FOLD\CUBISM3SDKFORNATIVE-BETA10\FRAMEWORK\..\CORE\INCLUDE" /I"D:\WORK_FOLD\CUBISM3SDKFORNATIVE-BETA10\FRAMEWORK\..\..\THIRDPARTY\DIRECTXTK\INC" /Zi /nologo /W3 /WX- /Od /Ob0 /Oy- /D WIN32 /D _WINDOWS /D "CMAKE_INTDIR=\"Debug\"" /D _MBCS /Gm- /EHsc /RTC1 /MDd /GS /fp:precise /Zc:wchar_t /Zc:forScope /Zc:inline /GR /Fo"FRAMEWORK.DIR\DEBUG\\" /Fd"FRAMEWORK.DIR\DEBUG\FRAMEWORK.PDB" /Gd /TP /analyze- D:\WORK_FOLD\CUBISM3SDKFORNATIVE-BETA10\FRAMEWORK\SRC\TYPE\CSMRECTF.CPP
^D:\WORK_FOLD\CUBISM3SDKFORNATIVE-BETA10\FRAMEWORK\SRC\TYPE\CSMSTRING.CPP
/c /I"D:\WORK_FOLD\CUBISM3SDKFORNATIVE-BETA10\FRAMEWORK\SRC" /I"D:\WORK_FOLD\CUBISM3SDKFORNATIVE-BETA10\FRAMEWORK\..\CORE\INCLUDE" /I"D:\WORK_FOLD\CUBISM3SDKFORNATIVE-BETA10\FRAMEWORK\..\..\THIRDPARTY\DIRECTXTK\INC" /Zi /nologo /W3 /WX- /Od /Ob0 /Oy- /D WIN32 /D _WINDOWS /D "CMAKE_INTDIR=\"Debug\"" /D _MBCS /Gm- /EHsc /RTC1 /MDd /GS /fp:precise /Zc:wchar_t /Zc:forScope /Zc:inline /GR /Fo"FRAMEWORK.DIR\DEBUG\\" /Fd"FRAMEWORK.DIR\DEBUG\FRAMEWORK.PDB" /Gd /TP /analyze- D:\WORK_FOLD\CUBISM3SDKFORNATIVE-BETA10\FRAMEWORK\SRC\TYPE\CSMSTRING.CPP
^D:\WORK_FOLD\CUBISM3SDKFORNATIVE-BETA10\FRAMEWORK\SRC\UTILS\CUBISMDEBUG.CPP
/c /I"D:\WORK_FOLD\CUBISM3SDKFORNATIVE-BETA10\FRAMEWORK\SRC" /I"D:\WORK_FOLD\CUBISM3SDKFORNATIVE-BETA10\FRAMEWORK\..\CORE\INCLUDE" /I"D:\WORK_FOLD\CUBISM3SDKFORNATIVE-BETA10\FRAMEWORK\..\..\THIRDPARTY\DIRECTXTK\INC" /Zi /nologo /W3 /WX- /Od /Ob0 /Oy- /D WIN32 /D _WINDOWS /D "CMAKE_INTDIR=\"Debug\"" /D _MBCS /Gm- /EHsc /RTC1 /MDd /GS /fp:precise /Zc:wchar_t /Zc:forScope /Zc:inline /GR /Fo"FRAMEWORK.DIR\DEBUG\\" /Fd"FRAMEWORK.DIR\DEBUG\FRAMEWORK.PDB" /Gd /TP /analyze- D:\WORK_FOLD\CUBISM3SDKFORNATIVE-BETA10\FRAMEWORK\SRC\UTILS\CUBISMDEBUG.CPP
^D:\WORK_FOLD\CUBISM3SDKFORNATIVE-BETA10\FRAMEWORK\SRC\UTILS\CUBISMJSON.CPP
/c /I"D:\WORK_FOLD\CUBISM3SDKFORNATIVE-BETA10\FRAMEWORK\SRC" /I"D:\WORK_FOLD\CUBISM3SDKFORNATIVE-BETA10\FRAMEWORK\..\CORE\INCLUDE" /I"D:\WORK_FOLD\CUBISM3SDKFORNATIVE-BETA10\FRAMEWORK\..\..\THIRDPARTY\DIRECTXTK\INC" /Zi /nologo /W3 /WX- /Od /Ob0 /Oy- /D WIN32 /D _WINDOWS /D "CMAKE_INTDIR=\"Debug\"" /D _MBCS /Gm- /EHsc /RTC1 /MDd /GS /fp:precise /Zc:wchar_t /Zc:forScope /Zc:inline /GR /Fo"FRAMEWORK.DIR\DEBUG\\" /Fd"FRAMEWORK.DIR\DEBUG\FRAMEWORK.PDB" /Gd /TP /analyze- D:\WORK_FOLD\CUBISM3SDKFORNATIVE-BETA10\FRAMEWORK\SRC\UTILS\CUBISMJSON.CPP
^D:\WORK_FOLD\CUBISM3SDKFORNATIVE-BETA10\FRAMEWORK\SRC\UTILS\CUBISMSTRING.CPP
/c /I"D:\WORK_FOLD\CUBISM3SDKFORNATIVE-BETA10\FRAMEWORK\SRC" /I"D:\WORK_FOLD\CUBISM3SDKFORNATIVE-BETA10\FRAMEWORK\..\CORE\INCLUDE" /I"D:\WORK_FOLD\CUBISM3SDKFORNATIVE-BETA10\FRAMEWORK\..\..\THIRDPARTY\DIRECTXTK\INC" /Zi /nologo /W3 /WX- /Od /Ob0 /Oy- /D WIN32 /D _WINDOWS /D "CMAKE_INTDIR=\"Debug\"" /D _MBCS /Gm- /EHsc /RTC1 /MDd /GS /fp:precise /Zc:wchar_t /Zc:forScope /Zc:inline /GR /Fo"FRAMEWORK.DIR\DEBUG\\" /Fd"FRAMEWORK.DIR\DEBUG\FRAMEWORK.PDB" /Gd /TP /analyze- D:\WORK_FOLD\CUBISM3SDKFORNATIVE-BETA10\FRAMEWORK\SRC\UTILS\CUBISMSTRING.CPP
^D:\WORK_FOLD\CUBISM3SDKFORNATIVE-BETA10\FRAMEWORK\SRC\CUBISMDEFAULTPARAMETERID.CPP
/c /I"D:\WORK_FOLD\CUBISM3SDKFORNATIVE-BETA10\FRAMEWORK\SRC" /I"D:\WORK_FOLD\CUBISM3SDKFORNATIVE-BETA10\FRAMEWORK\..\CORE\INCLUDE" /I"D:\WORK_FOLD\CUBISM3SDKFORNATIVE-BETA10\FRAMEWORK\..\..\THIRDPARTY\DIRECTXTK\INC" /Zi /nologo /W3 /WX- /Od /Ob0 /Oy- /D WIN32 /D _WINDOWS /D "CMAKE_INTDIR=\"Debug\"" /D _MBCS /Gm- /EHsc /RTC1 /MDd /GS /fp:precise /Zc:wchar_t /Zc:forScope /Zc:inline /GR /Fo"FRAMEWORK.DIR\DEBUG\\" /Fd"FRAMEWORK.DIR\DEBUG\FRAMEWORK.PDB" /Gd /TP /analyze- D:\WORK_FOLD\CUBISM3SDKFORNATIVE-BETA10\FRAMEWORK\SRC\CUBISMDEFAULTPARAMETERID.CPP
^D:\WORK_FOLD\CUBISM3SDKFORNATIVE-BETA10\FRAMEWORK\SRC\CUBISMFRAMEWORK.CPP
/c /I"D:\WORK_FOLD\CUBISM3SDKFORNATIVE-BETA10\FRAMEWORK\SRC" /I"D:\WORK_FOLD\CUBISM3SDKFORNATIVE-BETA10\FRAMEWORK\..\CORE\INCLUDE" /I"D:\WORK_FOLD\CUBISM3SDKFORNATIVE-BETA10\FRAMEWORK\..\..\THIRDPARTY\DIRECTXTK\INC" /Zi /nologo /W3 /WX- /Od /Ob0 /Oy- /D WIN32 /D _WINDOWS /D "CMAKE_INTDIR=\"Debug\"" /D _MBCS /Gm- /EHsc /RTC1 /MDd /GS /fp:precise /Zc:wchar_t /Zc:forScope /Zc:inline /GR /Fo"FRAMEWORK.DIR\DEBUG\\" /Fd"FRAMEWORK.DIR\DEBUG\FRAMEWORK.PDB" /Gd /TP /analyze- D:\WORK_FOLD\CUBISM3SDKFORNATIVE-BETA10\FRAMEWORK\SRC\CUBISMFRAMEWORK.CPP
^D:\WORK_FOLD\CUBISM3SDKFORNATIVE-BETA10\FRAMEWORK\SRC\CUBISMMODELSETTINGJSON.CPP
/c /I"D:\WORK_FOLD\CUBISM3SDKFORNATIVE-BETA10\FRAMEWORK\SRC" /I"D:\WORK_FOLD\CUBISM3SDKFORNATIVE-BETA10\FRAMEWORK\..\CORE\INCLUDE" /I"D:\WORK_FOLD\CUBISM3SDKFORNATIVE-BETA10\FRAMEWORK\..\..\THIRDPARTY\DIRECTXTK\INC" /Zi /nologo /W3 /WX- /Od /Ob0 /Oy- /D WIN32 /D _WINDOWS /D "CMAKE_INTDIR=\"Debug\"" /D _MBCS /Gm- /EHsc /RTC1 /MDd /GS /fp:precise /Zc:wchar_t /Zc:forScope /Zc:inline /GR /Fo"FRAMEWORK.DIR\DEBUG\\" /Fd"FRAMEWORK.DIR\DEBUG\FRAMEWORK.PDB" /Gd /TP /analyze- D:\WORK_FOLD\CUBISM3SDKFORNATIVE-BETA10\FRAMEWORK\SRC\CUBISMMODELSETTINGJSON.CPP
^D:\WORK_FOLD\CUBISM3SDKFORNATIVE-BETA10\FRAMEWORK\SRC\RENDERING\D3D11\CUBISMOFFSCREENSURFACE_D3D11.CPP
/c /I"D:\WORK_FOLD\CUBISM3SDKFORNATIVE-BETA10\FRAMEWORK\SRC" /I"D:\WORK_FOLD\CUBISM3SDKFORNATIVE-BETA10\FRAMEWORK\..\CORE\INCLUDE" /I"D:\WORK_FOLD\CUBISM3SDKFORNATIVE-BETA10\FRAMEWORK\..\..\THIRDPARTY\DIRECTXTK\INC" /Zi /nologo /W3 /WX- /Od /Ob0 /Oy- /D WIN32 /D _WINDOWS /D "CMAKE_INTDIR=\"Debug\"" /D _MBCS /Gm- /EHsc /RTC1 /MDd /GS /fp:precise /Zc:wchar_t /Zc:forScope /Zc:inline /GR /Fo"FRAMEWORK.DIR\DEBUG\\" /Fd"FRAMEWORK.DIR\DEBUG\FRAMEWORK.PDB" /Gd /TP /analyze- D:\WORK_FOLD\CUBISM3SDKFORNATIVE-BETA10\FRAMEWORK\SRC\RENDERING\D3D11\CUBISMOFFSCREENSURFACE_D3D11.CPP
^D:\WORK_FOLD\CUBISM3SDKFORNATIVE-BETA10\FRAMEWORK\SRC\RENDERING\D3D11\CUBISMRENDERER_D3D11.CPP
/c /I"D:\WORK_FOLD\CUBISM3SDKFORNATIVE-BETA10\FRAMEWORK\SRC" /I"D:\WORK_FOLD\CUBISM3SDKFORNATIVE-BETA10\FRAMEWORK\..\CORE\INCLUDE" /I"D:\WORK_FOLD\CUBISM3SDKFORNATIVE-BETA10\FRAMEWORK\..\..\THIRDPARTY\DIRECTXTK\INC" /Zi /nologo /W3 /WX- /Od /Ob0 /Oy- /D WIN32 /D _WINDOWS /D "CMAKE_INTDIR=\"Debug\"" /D _MBCS /Gm- /EHsc /RTC1 /MDd /GS /fp:precise /Zc:wchar_t /Zc:forScope /Zc:inline /GR /Fo"FRAMEWORK.DIR\DEBUG\\" /Fd"FRAMEWORK.DIR\DEBUG\FRAMEWORK.PDB" /Gd /TP /analyze- D:\WORK_FOLD\CUBISM3SDKFORNATIVE-BETA10\FRAMEWORK\SRC\RENDERING\D3D11\CUBISMRENDERER_D3D11.CPP
^D:\WORK_FOLD\CUBISM3SDKFORNATIVE-BETA10\FRAMEWORK\SRC\RENDERING\D3D11\CUBISMRENDERSTATE_D3D11.CPP
/c /I"D:\WORK_FOLD\CUBISM3SDKFORNATIVE-BETA10\FRAMEWORK\SRC" /I"D:\WORK_FOLD\CUBISM3SDKFORNATIVE-BETA10\FRAMEWORK\..\CORE\INCLUDE" /I"D:\WORK_FOLD\CUBISM3SDKFORNATIVE-BETA10\FRAMEWORK\..\..\THIRDPARTY\DIRECTXTK\INC" /Zi /nologo /W3 /WX- /Od /Ob0 /Oy- /D WIN32 /D _WINDOWS /D "CMAKE_INTDIR=\"Debug\"" /D _MBCS /Gm- /EHsc /RTC1 /MDd /GS /fp:precise /Zc:wchar_t /Zc:forScope /Zc:inline /GR /Fo"FRAMEWORK.DIR\DEBUG\\" /Fd"FRAMEWORK.DIR\DEBUG\FRAMEWORK.PDB" /Gd /TP /analyze- D:\WORK_FOLD\CUBISM3SDKFORNATIVE-BETA10\FRAMEWORK\SRC\RENDERING\D3D11\CUBISMRENDERSTATE_D3D11.CPP
^D:\WORK_FOLD\CUBISM3SDKFORNATIVE-BETA10\FRAMEWORK\SRC\MODEL\CUBISMMODEL.CPP
/c /I"D:\WORK_FOLD\CUBISM3SDKFORNATIVE-BETA10\FRAMEWORK\SRC" /I"D:\WORK_FOLD\CUBISM3SDKFORNATIVE-BETA10\FRAMEWORK\..\CORE\INCLUDE" /I"D:\WORK_FOLD\CUBISM3SDKFORNATIVE-BETA10\FRAMEWORK\..\..\THIRDPARTY\DIRECTXTK\INC" /Zi /nologo /W3 /WX- /Od /Ob0 /Oy- /D WIN32 /D _WINDOWS /D "CMAKE_INTDIR=\"Debug\"" /D _MBCS /Gm- /EHsc /RTC1 /MDd /GS /fp:precise /Zc:wchar_t /Zc:forScope /Zc:inline /GR /Fo"FRAMEWORK.DIR\DEBUG\\" /Fd"FRAMEWORK.DIR\DEBUG\FRAMEWORK.PDB" /Gd /TP /analyze- D:\WORK_FOLD\CUBISM3SDKFORNATIVE-BETA10\FRAMEWORK\SRC\MODEL\CUBISMMODEL.CPP
^D:\WORK_FOLD\CUBISM3SDKFORNATIVE-BETA10\FRAMEWORK\SRC\MOTION\ACUBISMMOTION.CPP
/c /I"D:\WORK_FOLD\CUBISM3SDKFORNATIVE-BETA10\FRAMEWORK\SRC" /I"D:\WORK_FOLD\CUBISM3SDKFORNATIVE-BETA10\FRAMEWORK\..\CORE\INCLUDE" /I"D:\WORK_FOLD\CUBISM3SDKFORNATIVE-BETA10\FRAMEWORK\..\..\THIRDPARTY\DIRECTXTK\INC" /Zi /nologo /W3 /WX- /Od /Ob0 /Oy- /D WIN32 /D _WINDOWS /D "CMAKE_INTDIR=\"Debug\"" /D _MBCS /Gm- /EHsc /RTC1 /MDd /GS /fp:precise /Zc:wchar_t /Zc:forScope /Zc:inline /GR /Fo"FRAMEWORK.DIR\DEBUG\\" /Fd"FRAMEWORK.DIR\DEBUG\FRAMEWORK.PDB" /Gd /TP /analyze- D:\WORK_FOLD\CUBISM3SDKFORNATIVE-BETA10\FRAMEWORK\SRC\MOTION\ACUBISMMOTION.CPP
^D:\WORK_FOLD\CUBISM3SDKFORNATIVE-BETA10\FRAMEWORK\SRC\RENDERING\D3D11\CUBISMSHADER_D3D11.CPP
/c /I"D:\WORK_FOLD\CUBISM3SDKFORNATIVE-BETA10\FRAMEWORK\SRC" /I"D:\WORK_FOLD\CUBISM3SDKFORNATIVE-BETA10\FRAMEWORK\..\CORE\INCLUDE" /I"D:\WORK_FOLD\CUBISM3SDKFORNATIVE-BETA10\FRAMEWORK\..\..\THIRDPARTY\DIRECTXTK\INC" /Zi /nologo /W3 /WX- /Od /Ob0 /Oy- /D WIN32 /D _WINDOWS /D "CMAKE_INTDIR=\"Debug\"" /D _MBCS /Gm- /EHsc /RTC1 /MDd /GS /fp:precise /Zc:wchar_t /Zc:forScope /Zc:inline /GR /Fo"FRAMEWORK.DIR\DEBUG\\" /Fd"FRAMEWORK.DIR\DEBUG\FRAMEWORK.PDB" /Gd /TP /analyze- D:\WORK_FOLD\CUBISM3SDKFORNATIVE-BETA10\FRAMEWORK\SRC\RENDERING\D3D11\CUBISMSHADER_D3D11.CPP
